…
      mutate(
    sum=rowSums(.[4:1443])
  )
acc=acc %>% 
  pivot_longer(activity_1:activity_1440,names_to="act",values_to="cc") 
acc=acc %>% 
separate(act, into = c("activity_name", "minute")) %>%
  mutate(
    minute=as.numeric(minute)
  ) %>% 
select(-activity_name)
acc
```

    ## # A tibble: 50,400 × 7
    ##     week day_id day    weedd       sum minute    cc
    ##    <dbl>  <dbl> <chr>  <chr>     <dbl>  <dbl> <dbl>
    ##  1     1      1 Friday weekday 480543.      1  88.4
    ##  2     1      1 Friday weekday 480543.      2  82.2
    ##  3     1      1 Friday weekday 480543.      3  64.4
    ##  4     1      1 Friday weekday 480543.      4  70.0
    ##  5     1      1 Friday weekday 480543.      5  75.0
    ##  6     1      1 Friday weekday 480543.      6  66.3
    ##  7     1      1 Friday weekday 480543.      7  53.8
    ##  8     1      1 Friday weekday 480543.      8  47.8
    ##  9     1      1 Friday weekday 480543.      9  55.5
    ## 10     1      1 Friday weekday 480543.     10  43.0
    ## # … with 50,390 more rows
…
\#arrange the order and make a plot

``` r
acc_ar=acc %>% 
  arrange(day_id)
acc_ar
```

    ## # A tibble: 50,400 × 7
    ##     week day_id day    weedd       sum minute    cc
    ##    <dbl>  <dbl> <chr>  <chr>     <dbl>  <dbl> <dbl>
    ##  1     1      1 Friday weekday 480543.      1  88.4
    ##  2     1      1 Friday weekday 480543.      2  82.2
    ##  3     1      1 Friday weekday 480543.      3  64.4
    ##  4     1      1 Friday weekday 480543.      4  70.0
    ##  5     1      1 Friday weekday 480543.      5  75.0
    ##  6     1      1 Friday weekday 480543.      6  66.3
    ##  7     1      1 Friday weekday 480543.      7  53.8
    ##  8     1      1 Friday weekday 480543.      8  47.8
    ##  9     1      1 Friday weekday 480543.      9  55.5
    ## 10     1      1 Friday weekday 480543.     10  43.0
    ## # … with 50,390 more rows
…
